<?xml version="1.0" encoding="utf-8"?>
<!-- Generator: Adobe Illustrator 19.1.0, SVG Export Plug-In . SVG Version: 6.00 Build 0)  -->
<svg version="1.1" id="Layer_1" xmlns="http://www.w3.org/2000/svg" xmlns:xlink="http://www.w3.org/1999/xlink" x="0px" y="0px"
	 viewBox="0 0 111.1 64" style="enable-background:new 0 0 111.1 64;" xml:space="preserve">
<style type="text/css">
	.st0{fill:#676767;}
</style>
<g>
	<rect x="80.7" y="19.2" class="st0" width="7.6" height="11.9"/>
	<path class="st0" d="M0,0v64h111.1V0H0z M44.3,52.3h-9.7l-1.5-17.6l-3.5,17.6h-7.7l-6.7-40.6h7.7L26,32.5l4-20.8h6.2l4.1,20.8
		l3.1-20.8h7.7L44.3,52.3z M65.5,52.3H58V11.7h7.5V52.3z M95.9,34.2L91,38.5H80.7v13.8h-7.5V11.7H91l4.9,4.3V34.2z"/>
</g>
</svg>
